			_______________________

			   BILL OF MATERIALS

			 Johannes Střelka-Petz
			_______________________

|------------------------------------------+--------|
| Material                                 | Amount |
|------------------------------------------+--------|
| Arduino micro                            |      1 |
|------------------------------------------+--------|
| BlueSMiRF silver (optional)              |      1 |
|------------------------------------------+--------|
| Keyboard switches (Cherry MX compatible) |      8 |
|------------------------------------------+--------|
| Keycaps                                  |      8 |
|------------------------------------------+--------|
| Alps SKRHAAE010 (optional joystick)      |      1 |
|------------------------------------------+--------|
| USB-Kabel                                |      1 |
|------------------------------------------+--------|
| Powerbank (optional)                     |      1 |
|------------------------------------------+--------|
| Screws M5                                |      2 |
|------------------------------------------+--------|
| Nuts M5                                  |      2 |
|------------------------------------------+--------|
| Pin strip                                |      2 |
|------------------------------------------+--------|
| 1 kOhm Resistant                         |      1 |
|------------------------------------------+--------|
| Plexiglas 3 mm                           |      1 |
|------------------------------------------+--------|
| Plywood 4 mm                             |      1 |
|------------------------------------------+--------|
| Control wire                             |      1 |
|------------------------------------------+--------|
